{
  "minecraft:adventure/adventuring_time": {
    "criteria": {
      "minecraft:forest": "2020-09-11 14:59:26 +0430",
      "minecraft:plains": "2020-09-11 14:58:23 +0430"
    },
    "done": false
  },
  "DataVersion": 2578
}