{
  "islands": {
    "2": {
      "owner": "f362a080-12a0-361a-abb5-6b27b5aafdfe",
      "members": [
        "f362a080-12a0-361a-abb5-6b27b5aafdfe"
      ],
      "pos1": {
        "x": 126.0,
        "y": 0.0,
        "z": -25.0,
        "world": "IridiumSkyblock"
      },
      "pos2": {
        "x": 176.0,
        "y": 0.0,
        "z": 25.0,
        "world": "IridiumSkyblock"
      },
      "center": {
        "x": 151.0,
        "y": 100.0,
        "z": 0.0,
        "world": "IridiumSkyblock"
      },
      "home": {
        "x": 150.5,
        "y": 96.0,
        "z": -2.5,
        "world": "IridiumSkyblock"
      },
      "netherhome": {
        "x": 150.5,
        "y": 96.0,
        "z": -2.5,
        "world": "IridiumSkyblock_nether"
      },
      "id": 2,
      "spawnerBooster": 0,
      "farmingBooster": 0,
      "expBooster": 0,
      "flightBooster": 0,
      "crystals": 0,
      "sizeLevel": 1,
      "memberLevel": 1,
      "warpLevel": 1,
      "oreLevel": 1,
      "value": 0.0,
      "extravalue": 0.0,
      "warps": [],
      "startvalue": 0.0,
      "missions": {
        "Competitor": 0
      },
      "missionLevels": {
        "Treasure Hunter": 1,
        "Competitor": 1,
        "Miner": 1,
        "Farmer": 1,
        "Hunter": 1,
        "Fisherman": 1,
        "Builder": 1
      },
      "visit": true,
      "borderColor": "Blue",
      "permissions": {
        "Member": {
          "breakBlocks": true,
          "placeBlocks": true,
          "interact": true,
          "kickMembers": true,
          "inviteMembers": true,
          "regen": true,
          "islandprivate": true,
          "promote": true,
          "demote": true,
          "useNetherPortal": true,
          "useWarps": true,
          "coop": true,
          "withdrawBank": true,
          "killMobs": true,
          "pickupItems": true,
          "breakSpawners": true
        },
        "Owner": {
          "breakBlocks": true,
          "placeBlocks": true,
          "interact": true,
          "kickMembers": true,
          "inviteMembers": true,
          "regen": true,
          "islandprivate": true,
          "promote": true,
          "demote": true,
          "useNetherPortal": true,
          "useWarps": true,
          "coop": true,
          "withdrawBank": true,
          "killMobs": true,
          "pickupItems": true,
          "breakSpawners": true
        },
        "Visitor": {
          "breakBlocks": false,
          "placeBlocks": false,
          "interact": false,
          "kickMembers": false,
          "inviteMembers": false,
          "regen": false,
          "islandprivate": false,
          "promote": false,
          "demote": false,
          "useNetherPortal": true,
          "useWarps": true,
          "coop": false,
          "withdrawBank": false,
          "killMobs": false,
          "pickupItems": false,
          "breakSpawners": false
        },
        "CoOwner": {
          "breakBlocks": true,
          "placeBlocks": true,
          "interact": true,
          "kickMembers": true,
          "inviteMembers": true,
          "regen": true,
          "islandprivate": true,
          "promote": true,
          "demote": true,
          "useNetherPortal": true,
          "useWarps": true,
          "coop": true,
          "withdrawBank": true,
          "killMobs": true,
          "pickupItems": true,
          "breakSpawners": true
        },
        "Moderator": {
          "breakBlocks": true,
          "placeBlocks": true,
          "interact": true,
          "kickMembers": true,
          "inviteMembers": true,
          "regen": true,
          "islandprivate": true,
          "promote": true,
          "demote": true,
          "useNetherPortal": true,
          "useWarps": true,
          "coop": true,
          "withdrawBank": true,
          "killMobs": true,
          "pickupItems": true,
          "breakSpawners": true
        }
      },
      "schematic": "island.schematic",
      "netherschematic": "nether.schematic",
      "bans": [],
      "votes": [],
      "coop": [],
      "name": "amirkhoob",
      "money": 0.0,
      "exp": 0,
      "biome": "PLAINS",
      "lastRegen": "Sep 26, 2020, 5:39:15 PM"
    }
  },
  "users": {
    "0bc0b27b-1e75-33d8-bf7f-196e530eddae": {
      "player": "0bc0b27b-1e75-33d8-bf7f-196e530eddae",
      "name": "Chet_Maqz",
      "islandID": 0,
      "invites": [],
      "bypassing": false,
      "islandChat": false,
      "flying": false
    },
    "8de65cf3-3d4f-369c-9f23-cbfb061f3501": {
      "player": "8de65cf3-3d4f-369c-9f23-cbfb061f3501",
      "name": "shokoohi",
      "islandID": 0,
      "role": "Owner",
      "invites": [],
      "bypassing": false,
      "islandChat": false,
      "flying": false,
      "lastCreate": "Sep 26, 2020, 5:27:37 PM"
    },
    "97541c93-518c-38e2-b90d-e70f91c29e26": {
      "player": "97541c93-518c-38e2-b90d-e70f91c29e26",
      "name": "pouya",
      "islandID": 0,
      "invites": [],
      "bypassing": false,
      "islandChat": false,
      "flying": false
    },
    "25b00f95-c052-3e1f-9c79-1fd2ff550084": {
      "player": "25b00f95-c052-3e1f-9c79-1fd2ff550084",
      "name": "g3420",
      "islandID": 0,
      "invites": [],
      "bypassing": false,
      "islandChat": false,
      "flying": false
    },
    "2a1dbdad-4c67-3be9-94f7-29e916d930b4": {
      "player": "2a1dbdad-4c67-3be9-94f7-29e916d930b4",
      "name": "@a",
      "islandID": 0,
      "invites": [],
      "bypassing": false,
      "islandChat": false,
      "flying": false
    },
    "f1fc3ca0-35d5-333f-83ab-0ad488f64214": {
      "player": "f1fc3ca0-35d5-333f-83ab-0ad488f64214",
      "name": "Amantisia",
      "islandID": 0,
      "invites": [],
      "bypassing": false,
      "islandChat": false,
      "flying": false
    },
    "f362a080-12a0-361a-abb5-6b27b5aafdfe": {
      "player": "f362a080-12a0-361a-abb5-6b27b5aafdfe",
      "name": "amirkhoob",
      "islandID": 2,
      "role": "Owner",
      "invites": [
        1
      ],
      "bypassing": false,
      "islandChat": false,
      "flying": false,
      "lastCreate": "Sep 26, 2020, 5:39:15 PM"
    },
    "9a3c7f99-6369-3970-ad1f-baec0afa70e7": {
      "player": "9a3c7f99-6369-3970-ad1f-baec0afa70e7",
      "name": "AliMakaveli",
      "islandID": 0,
      "invites": [],
      "bypassing": false,
      "islandChat": false,
      "flying": false
    },
    "59d050e5-616f-39e9-8967-3171bf1b92df": {
      "player": "59d050e5-616f-39e9-8967-3171bf1b92df",
      "name": "RasPuTiNz",
      "islandID": 0,
      "invites": [],
      "bypassing": false,
      "islandChat": false,
      "flying": false
    },
    "6c068e2f-2181-379e-9760-4bb62888bc4a": {
      "player": "6c068e2f-2181-379e-9760-4bb62888bc4a",
      "name": "parsarch",
      "islandID": 0,
      "invites": [],
      "bypassing": false,
      "islandChat": false,
      "flying": false
    },
    "4125b892-2f4c-3fe3-974c-9a1bfb901125": {
      "player": "4125b892-2f4c-3fe3-974c-9a1bfb901125",
      "name": "sam_sepioll",
      "islandID": 0,
      "invites": [],
      "bypassing": false,
      "islandChat": false,
      "flying": false
    },
    "4d092de6-6aae-313a-9377-0866af7ac68f": {
      "player": "4d092de6-6aae-313a-9377-0866af7ac68f",
      "name": "android_xml",
      "islandID": 0,
      "invites": [],
      "bypassing": false,
      "islandChat": false,
      "flying": false
    },
    "c9d9be1c-ad8f-3bb7-9488-ad5bf81cbcd7": {
      "player": "c9d9be1c-ad8f-3bb7-9488-ad5bf81cbcd7",
      "name": "pouya2319",
      "islandID": 0,
      "invites": [],
      "bypassing": false,
      "islandChat": false,
      "flying": false
    },
    "80c619af-63d3-3bc7-84a9-81edb4d6e101": {
      "player": "80c619af-63d3-3bc7-84a9-81edb4d6e101",
      "name": "blonde4132",
      "islandID": 0,
      "invites": [],
      "bypassing": false,
      "islandChat": false,
      "flying": false
    },
    "c0728bd6-390e-3a39-a171-92f6e3053e81": {
      "player": "c0728bd6-390e-3a39-a171-92f6e3053e81",
      "name": "AmirhosseinWP",
      "islandID": 0,
      "invites": [],
      "bypassing": false,
      "islandChat": false,
      "flying": false
    },
    "410dff62-df50-38f5-8b00-1b89a1f604ce": {
      "player": "410dff62-df50-38f5-8b00-1b89a1f604ce",
      "name": "Mohammad",
      "islandID": 0,
      "invites": [],
      "bypassing": false,
      "islandChat": false,
      "flying": false
    },
    "29c85d71-b86d-3bf5-bcac-c743bc0f409f": {
      "player": "29c85d71-b86d-3bf5-bcac-c743bc0f409f",
      "name": "rezile",
      "islandID": 0,
      "invites": [],
      "bypassing": false,
      "islandChat": false,
      "flying": false
    },
    "4ed8f8b5-d78c-3073-bc30-48ac7eb4e5c6": {
      "player": "4ed8f8b5-d78c-3073-bc30-48ac7eb4e5c6",
      "name": "Kevinscruff",
      "islandID": 0,
      "invites": [],
      "bypassing": false,
      "islandChat": false,
      "flying": false
    },
    "1a0b811f-f242-31d2-a78e-516a01933d36": {
      "player": "1a0b811f-f242-31d2-a78e-516a01933d36",
      "name": "Amirhossein",
      "islandID": 0,
      "invites": [],
      "bypassing": false,
      "islandChat": false,
      "flying": false
    },
    "026148e1-3a7e-3f14-b20c-fe55f692b093": {
      "player": "026148e1-3a7e-3f14-b20c-fe55f692b093",
      "name": "R3DL1FE",
      "islandID": 0,
      "invites": [],
      "bypassing": false,
      "islandChat": false,
      "flying": false
    },
    "97672a82-cbba-327e-a74e-2b40d741d265": {
      "player": "97672a82-cbba-327e-a74e-2b40d741d265",
      "name": "uidops",
      "islandID": 0,
      "invites": [],
      "bypassing": false,
      "islandChat": false,
      "flying": false
    }
  },
  "islandCache": [
    [
      [
        0,
        -1
      ],
      []
    ],
    [
      [
        0,
        0
      ],
      []
    ],
    [
      [
        -1,
        -1
      ],
      []
    ],
    [
      [
        -1,
        0
      ],
      []
    ],
    [
      [
        0,
        1
      ],
      []
    ],
    [
      [
        9,
        -1
      ],
      [
        2
      ]
    ],
    [
      [
        9,
        0
      ],
      [
        2
      ]
    ],
    [
      [
        0,
        -2
      ],
      []
    ],
    [
      [
        -12,
        2
      ],
      []
    ]
  ],
  "length": 2,
  "current": 0,
  "direction": "SOUTH",
  "nextLocation": {
    "x": 151.0,
    "y": 0.0,
    "z": 151.0,
    "world": "IridiumSkyblock"
  },
  "nextID": 3
}